{
    "emergency_burn":{
        "plugin":"data.campaign.abilities.Torchships_EmergencyBurnAbility",
        "unlockedAtStart":true,
        "defaultForAIFleet":true,
        "sortOrder":400,

        "musicSuppression":1,
        "uiOn":"ui_emergency_burn_on",
        "uiOff":"ui_emergency_burn_off",
        "uiLoop":"ui_emergency_burn_loop",
        "worldOn":"world_emergency_burn_on",
        "worldOff":"world_emergency_burn_off",
        "worldLoop":"world_emergency_burn_loop",
    },

    "emergency_maneuver":{
        "plugin":"data.campaign.abilities.Torchships_EmergencyManeuverAbility",
        "unlockedAtStart":true,
        "defaultForAIFleet":true,
        "sortOrder":401,

        "uiOn":"ui_sustained_burn_on",
        "uiOff":"ui_sustained_burn_off",
        "uiLoop":"",
        "worldOn":"world_sustained_burn_on",
        "worldOff":"world_sustained_burn_off",
        "worldLoop":"world_sustained_burn_loop",
    },
}






